{
    "version": 1,
    "wallpaper": {
        "future": false,
        "preview": "cat.jpg",
        "source": "https://storage.ape.yandex.net/get/73a2210bae32b124a2e719b5c418dee3.jpg",
        "video": false
    }
}