{
  "version": 1,
  "wallpaper": {
    "future": false,
    "preview": "9.jpg",
    "source": "https://storage.ape.yandex.net/get/TableauBackgrounds/6d91f7aab4596aa9af9101e956af3939.png",
    "video": false,
    "avg_color": "dark"
  }
}
